<?xml version="1.0" encoding="UTF-8" standalone="no"?>
<svg
   xmlns:dc="http://purl.org/dc/elements/1.1/"
   xmlns:cc="http://creativecommons.org/ns#"
   xmlns:rdf="http://www.w3.org/1999/02/22-rdf-syntax-ns#"
   xmlns:svg="http://www.w3.org/2000/svg"
   xmlns="http://www.w3.org/2000/svg"
   xmlns:xlink="http://www.w3.org/1999/xlink"
   id="svg4594"
   version="1.1"
   viewBox="0 0 111.911 122.043"
   height="122.043"
   width="111.911">
  <metadata
     id="metadata4598">
    <rdf:RDF>
      <cc:Work
         rdf:about="">
        <dc:format>image/svg+xml</dc:format>
        <dc:type
           rdf:resource="http://purl.org/dc/dcmitype/StillImage" />
        <dc:title></dc:title>
      </cc:Work>
    </rdf:RDF>
  </metadata>
  <defs
     id="defs4579">
    <path
       d="m 0.062,0.132 h 156.714 v 167.11 H 0.062 Z"
       id="a" />
  </defs>
  <g
     transform="translate(1.586979,-23.509576)"
     style="fill:none;fill-rule:evenodd"
     id="g4592">
    <g
       id="g4586">
      <mask
         fill="#fff"
         id="b">
        <use
           height="100%"
           width="100%"
           y="0"
           x="0"
           id="use4581"
           xlink:href="#a" />
      </mask>
      <path
         style="fill:#00264a"
         id="path4584"
         mask="url(#b)"
         d="M 0.062,167.243 H 156.776 V 0.132 H 0.062 Z" />
    </g>
    <g
       transform="translate(-23.970979,0.8125757)"
       id="g4602">
      <path
         style="fill:#ffcb05"
         d="M 78.253,88.96 55.49,57.543 v 22.849 h 9.106 v 22.563 H 22.481 V 80.393 h 8.535 V 45.263 H 22.481 V 22.697 h 33.08 L 78.364,54.4 101.217,22.697 h 33.078 v 22.566 h -8.537 v 35.13 h 8.537 v 22.563 H 92.184 V 80.393 h 9.104 V 57.543 L 78.253,88.96"
         id="path4588" />
      <path
         style="fill:#fffffe"
         d="m 103.582,137.672 v 0.81 c -1.36,0.086 -1.36,0.471 -1.398,3.331 v 1.133 c -1.167,0.724 -2.833,1.772 -5.782,1.772 -5.168,0 -7.637,-3.93 -7.637,-7.88 0,-4.824 3.255,-7.961 7.333,-7.961 2.565,0 4.04,0.959 5.265,1.706 l 0.785,-0.897 0.114,4.72 -0.613,0.106 c -0.304,-0.897 -0.765,-1.932 -1.894,-3.064 -0.497,-0.49 -1.456,-1.12 -2.969,-1.12 -2.622,0 -4.804,2.22 -4.804,6.555 0,3.459 1.703,6.426 4.632,6.426 1.665,0 2.527,-1.176 2.603,-1.26 0.268,-0.406 0.33,-0.768 0.307,-1.432 -0.069,-1.92 -0.326,-1.962 -1.992,-2.134 v -0.81 h 6.05 z m 14.824,6.662 v -0.81 c 1.234,-0.065 1.702,-0.086 1.873,-0.94 0.212,-1.005 0.275,-9.949 0.297,-11.507 -0.83,-0.768 -1.17,-0.918 -2.17,-1.003 v -0.812 h 4.51 c 1.254,1.794 1.53,2.198 3.743,4.952 l 4.19,5.21 v -6.746 c -0.022,-2.391 -0.085,-2.519 -2.467,-2.604 v -0.812 h 5.913 v 0.812 c -1.638,0.02 -1.787,0.364 -1.808,2.817 l -0.213,11.635 h -0.893 l -1.34,-1.686 c -0.681,-0.854 -1.361,-1.706 -2.042,-2.54 l -5.935,-7.349 v 7.819 c 0,2.434 0.17,2.519 2.467,2.754 v 0.81 z m -82.887,0 v -0.81 c 1.893,-0.128 1.893,-0.213 1.914,-3.01 v -7.58 l -5.253,11.592 h -1.319 l -4.823,-11.745 -0.112,8.864 c 0,1.473 0.17,1.75 1.766,1.879 v 0.81 h -5.211 v -0.81 c 1.212,-0.065 1.68,-0.235 1.765,-1.26 0.042,-0.406 0.105,-1.667 0.128,-2.499 l 0.212,-6.318 c 0.022,-0.492 0.022,-1.218 0.022,-1.752 0,-1.493 -0.3,-1.601 -1.639,-1.621 v -0.812 h 4.722 l 4.68,11.442 5.147,-11.442 h 4.573 v 0.897 c -1.786,0.106 -1.808,0.298 -1.786,2.647 v 6.212 c 0,1.026 0.02,2.306 0.085,3.075 0.085,1.11 0.51,1.324 1.7,1.43 v 0.811 h -6.57 z m 8.044,0 v -0.81 c 1.468,-0.193 1.765,-0.363 1.787,-1.945 v -8.026 c -0.022,-3.138 -0.022,-3.224 -1.787,-3.48 v -0.81 h 6.235 v 0.81 c -1.766,0.171 -1.766,0.256 -1.766,3.48 v 6.084 c 0,0.534 0.022,2.22 0.064,2.669 0.107,0.917 0.532,1.132 1.702,1.218 v 0.81 z m 38.532,0 v -0.81 c 1.47,-0.193 1.767,-0.363 1.788,-1.945 v -8.026 c -0.02,-3.138 -0.02,-3.224 -1.788,-3.48 v -0.81 h 6.242 v 0.81 c -1.765,0.171 -1.765,0.256 -1.765,3.48 v 6.084 c 0,0.534 0.021,2.22 0.065,2.669 0.105,0.917 0.53,1.132 1.7,1.218 v 0.81 z m -17.119,0 v -0.81 c 1.701,-0.15 1.723,-0.514 1.723,-1.964 0.02,-0.534 0.02,-1.069 0.02,-1.602 v -6.32 c 0,-0.98 0,-1.963 -0.063,-2.434 -0.085,-0.895 -0.51,-1.025 -1.68,-1.13 v -0.812 h 6.429 v 0.812 c -1.256,0.128 -1.723,0.17 -1.873,1.003 -0.105,0.49 -0.127,1.601 -0.127,2.498 v 2.082 c 1.297,0.064 2.202,0.106 3.457,0.106 1.275,0 2.285,-0.042 3.562,-0.106 v -2.531 c -0.02,-2.754 -0.043,-2.86 -2.084,-3.052 v -0.812 h 6.513 v 0.812 c -1.747,0.213 -1.747,0.235 -1.747,3.094 v 6.363 c 0,0.598 0.022,2.5 0.085,2.945 0.107,0.792 0.554,0.94 1.662,1.048 v 0.81 H 74.34 v -0.81 c 1.51,-0.173 1.913,-0.213 2.041,-1.26 0.043,-0.427 0.043,-1.003 0.043,-2.093 v -2.764 c -1.19,-0.042 -2.18,-0.106 -3.414,-0.106 -1.296,0 -2.308,0.04 -3.605,0.106 v 2.764 c 0.022,3.14 0.064,3.14 2,3.353 v 0.81 z m -1.11,-3.351 c -0.666,1.088 -2.263,3.757 -6.406,3.757 -4.525,0 -7.456,-3.35 -7.456,-7.75 0,-4.077 2.486,-8.091 7.558,-8.091 2.666,0 4.082,1.132 4.95,1.814 l 1.03,-0.94 0.081,4.569 -0.667,0.13 c -0.262,-0.876 -0.647,-1.581 -1.616,-2.648 -0.465,-0.492 -1.575,-1.472 -3.152,-1.472 -2.707,0 -4.85,2.218 -4.85,6.125 0,3.31 1.759,6.428 5.234,6.428 2.626,0 3.61,-1.471 4.4,-2.602 l 0.893,0.68 z m 46.617,-8.748 -2.207,6.248 h 4.314 z m 1.344,12.1 v -0.811 c 1.02,-0.065 1.808,-0.15 1.808,-0.982 0,-0.299 -0.086,-0.62 -0.17,-0.897 l -0.45,-1.54 h -5.296 l -0.465,1.304 c -0.107,0.321 -0.192,0.621 -0.192,0.94 0,1.068 1.128,1.132 2.042,1.175 v 0.81 h -6.19 v -0.81 c 1.575,-0.065 2.085,-0.386 2.66,-1.964 l 4.061,-11.188 -0.233,-0.364 c 1.744,-0.575 2.233,-0.83 2.978,-1.388 0.298,1.026 0.34,1.154 0.68,2.22 l 3.319,10.249 c 0.595,1.816 0.871,2.262 2.467,2.435 v 0.81 h -7.02 z M 72.585,121.284 c 0.015,2.285 0.015,2.593 1.21,2.62 v 0.552 h -4.146 v -0.553 c 1.07,-0.083 1.181,-0.253 1.196,-1.325 0.013,-0.41 0.013,-0.873 0.013,-1.282 v -3.605 c 0,-1.199 -0.013,-1.622 -0.056,-1.946 -0.07,-0.55 -0.337,-0.65 -1.153,-0.72 v -0.536 l 4.498,0.017 c 2.446,0 3.219,1.171 3.219,2.553 0,0.96 -0.59,2.209 -1.954,2.634 l 1.758,3.068 c 0.633,1.171 0.97,1.442 1.772,1.553 v 0.339 a 9.222,9.222 0 0 1 -0.647,0.028 c -1.87,0 -2.643,-0.65 -3.431,-2.328 l -0.549,-1.173 c -0.589,-1.255 -0.787,-1.177 -1.729,-1.191 v 1.295 z m 0.001,-2.17 c 0.267,0.055 0.647,0.097 0.929,0.097 1.13,0.005 1.982,-0.885 2.024,-1.682 0.06,-1.158 -0.52,-2.158 -2.348,-2.158 -0.253,0 -0.407,0.014 -0.605,0.057 z m -4.098,5.342 c 0,-0.719 0.126,-1.906 0.21,-2.582 H 68.22 c -0.338,1.778 -1.336,1.693 -2.77,1.693 -1.322,0 -1.588,-0.354 -1.588,-1.003 v -2.786 h 1.068 c 1.223,0 1.574,0.105 1.574,1.222 h 0.478 v -3.291 h -0.478 c -0.097,0.89 -0.28,1.18 -1.561,1.18 h -1.08 v -3.51 h 1.222 c 1.686,0 2.292,0.128 2.516,1.482 h 0.45 l -0.056,-2.37 h -7.072 v 0.535 c 0.716,0.071 1.026,0.114 1.125,0.579 0.07,0.31 0.084,1.41 0.084,1.806 v 3.503 c 0,0.268 -0.014,1.468 -0.029,1.707 -0.028,1.088 -0.154,1.186 -1.18,1.284 v 0.551 z m 36.027,0 v -0.536 c 0.773,-0.085 1.068,-0.113 1.266,-0.31 0.226,-0.226 0.226,-0.48 0.238,-1.568 v -1.749 l -2.643,-4.108 c -0.716,-1.072 -0.731,-1.1 -1.687,-1.157 v -0.55 h 5.175 v 0.55 c -1.04,0.029 -1.505,0.057 -1.505,0.536 0,0.268 0.183,0.579 0.435,1.003 l 1.52,2.496 1.405,-2.482 c 0.254,-0.493 0.393,-0.79 0.393,-1.017 0,-0.479 -0.407,-0.494 -1.096,-0.536 v -0.55 h 3.881 v 0.55 c -0.999,0.029 -1.294,0.325 -2.433,2.188 l -1.546,2.596 v 2.076 c 0,1.806 0.014,1.947 1.49,2.032 v 0.536 z m -44.017,-9.963 v 0.535 c -0.955,0.142 -1.082,0.41 -1.898,2.385 l -3.022,7.242 h -0.535 l -2.714,-7.353 c -0.674,-1.892 -0.76,-2.117 -1.757,-2.274 v -0.535 h 4.71 v 0.535 c -0.801,0.029 -1.322,0.057 -1.322,0.636 0,0.281 0.07,0.521 0.337,1.355 l 1.73,5.066 2.024,-5.237 c 0.128,-0.352 0.295,-0.803 0.295,-1.056 0,-0.722 -0.702,-0.75 -1.32,-0.764 v -0.535 z m -33.643,0 v 0.535 c -1.321,0.1 -1.321,0.142 -1.336,2.259 v 2.342 c 0,1.214 0.024,2.255 0.662,3.19 0.507,0.743 1.37,0.84 1.806,0.84 1.42,0 2.2,-0.742 2.538,-1.913 0.281,-0.931 0.296,-2.681 0.296,-3.838 0,-0.367 0,-1.552 -0.015,-1.877 -0.057,-0.903 -0.52,-0.931 -1.407,-1.003 v -0.535 h 3.784 v 0.535 c -0.928,-0.014 -1.125,0.2 -1.182,1.186 a 614.76,614.76 0 0 0 -0.14,3.43 c -0.029,0.76 -0.07,1.51 -0.239,2.23 -0.675,2.68 -3.277,2.821 -3.965,2.821 -0.549,0 -1.673,-0.083 -2.602,-0.704 -1.476,-1.002 -1.49,-2.499 -1.49,-4.108 v -2.257 c -0.014,-1.074 -0.014,-1.553 -0.042,-1.806 -0.084,-0.622 -0.393,-0.75 -1.139,-0.792 v -0.535 h 4.47 z m 67.434,9.963 v -0.423 c 0.916,-0.013 1.168,-0.352 1.168,-1.144 v -7.34 H 94.22 c -1.125,0 -1.87,-0.042 -1.955,1.736 h -0.52 l 0.085,-2.794 h 9.026 l 0.085,2.794 h -0.52 c -0.085,-1.778 -0.83,-1.736 -1.955,-1.736 h -1.237 v 7.34 c 0,0.792 0.252,1.13 1.166,1.144 l 0.001,0.423 H 94.29 Z m -15.313,-3.106 0.506,-0.054 c 0.55,1.621 1.465,2.496 2.957,2.496 1.057,0 1.985,-0.45 1.985,-1.524 0,-1.129 -1.083,-1.579 -1.562,-1.778 -0.395,-0.154 -0.817,-0.282 -1.211,-0.437 -0.817,-0.296 -2.351,-0.93 -2.351,-2.865 0,-1.863 1.465,-2.906 3.167,-2.906 0.662,0 1.437,0.139 2.28,0.675 l 0.604,-0.436 0.324,2.963 -0.492,0.1 c -0.168,-0.65 -0.296,-0.953 -0.69,-1.476 -0.477,-0.62 -1.152,-0.91 -1.941,-0.91 -1.055,0 -1.675,0.508 -1.675,1.298 0,1.185 1.168,1.58 2.28,1.949 0.563,0.181 1.027,0.338 1.435,0.577 a 2.9,2.9 0 0 1 1.435,2.541 c 0,1.722 -1.407,3.147 -3.503,3.147 -1.352,0 -2.183,-0.537 -2.576,-0.79 l -0.828,-0.607 z m -45.043,3.106 v -0.536 c 0.816,-0.043 1.125,-0.057 1.238,-0.621 0.14,-0.663 0.182,-6.576 0.197,-7.607 -0.55,-0.507 -0.774,-0.607 -1.435,-0.664 v -0.535 h 2.98 c 0.83,1.184 1.014,1.452 2.476,3.273 l 2.77,3.445 v -4.46 c -0.015,-1.58 -0.057,-1.666 -1.632,-1.723 v -0.535 h 3.91 v 0.535 c -1.083,0.014 -1.182,0.24 -1.195,1.863 l -0.141,7.693 H 42.51 l -0.886,-1.115 c -0.45,-0.565 -0.9,-1.13 -1.35,-1.68 l -3.923,-4.857 v 5.167 c 0,1.61 0.113,1.667 1.63,1.82 v 0.537 z m 52.745,0 v -0.536 c 0.97,-0.128 1.168,-0.24 1.181,-1.284 v -5.306 c -0.013,-2.077 -0.013,-2.132 -1.18,-2.302 v -0.535 h 4.12 v 0.535 c -1.167,0.114 -1.167,0.17 -1.167,2.302 v 4.02 c 0,0.353 0.014,1.47 0.042,1.767 0.07,0.607 0.352,0.746 1.125,0.803 v 0.536 h -4.12 z m -41.173,0 v -0.536 c 0.97,-0.128 1.167,-0.24 1.181,-1.284 v -5.306 c -0.014,-2.077 -0.014,-2.132 -1.181,-2.302 v -0.535 h 4.123 v 0.535 c -1.166,0.114 -1.166,0.17 -1.166,2.302 v 4.02 c 0,0.353 0.013,1.47 0.042,1.767 0.07,0.607 0.351,0.746 1.124,0.803 v 0.536 z m 81.26,-0.479 v 0.55 h 4.11 v -0.55 c -1.025,-0.1 -1.152,-0.2 -1.18,-1.285 l 0.007,-2.843 h 1.097 c 1.11,0 1.7,0.105 1.771,1.22 h 0.479 v -3.288 h -0.479 c -0.057,1.073 -0.352,1.179 -1.56,1.179 h -1.308 v -3.451 c 0.353,-0.043 0.55,-0.056 1.183,-0.056 1.94,0 2.565,-0.008 2.825,1.552 h 0.493 l -0.155,-2.442 h -7.282 v 0.537 c 0.717,0.07 1.025,0.113 1.124,0.577 0.071,0.311 0.085,1.411 0.085,1.807 l -0.002,3.501 c 0,0.268 -0.014,1.468 -0.028,1.707 -0.027,1.086 -0.155,1.185 -1.18,1.285 z m -5.44,-0.114 c 0.56,-0.016 1.351,-0.296 1.965,-1.232 0.702,-1.081 0.845,-2.074 0.806,-3.37 -0.04,-1.286 -0.397,-2.39 -1.127,-3.171 -0.319,-0.343 -0.948,-0.847 -1.776,-0.822 -0.827,0 -1.44,0.524 -1.75,0.875 -0.706,0.803 -1.028,1.92 -1.028,3.205 0,1.299 0.174,2.285 0.908,3.344 0.642,0.917 1.44,1.17 2.001,1.17 z m 4.957,-4.334 c 0,3.445 -2.337,5.251 -4.968,5.251 -2.885,0 -5.143,-2.088 -5.143,-5.264 0,-2.724 1.817,-5.18 5.01,-5.166 3.005,0.015 5.101,2.16 5.101,5.18 z"
         id="path4590" />
    </g>
  </g>
</svg>
