<svg xmlns="http://www.w3.org/2000/svg" width="256" height="40" viewBox="0 0 256 40">
    <g fill="none" fill-rule="evenodd">
        <path fill="#FFFFFE" d="M81.938.282h.638l-2.057 7.429h-.823L77.627.282h.701l1.759 6.647h.02L81.938.282M84.05 7.71h.659V.283h-.659zM86.478 3.997c0-2.006.02-3.859 2.242-3.859 1.801 0 1.832 1.483 1.832 2.151h-.658c0-.823-.227-1.594-1.174-1.594-1.563 0-1.584 1.327-1.584 3.302 0 1.976.02 3.304 1.584 3.304.855 0 1.174-.763 1.184-1.72h.7c0 .536-.124 2.274-1.884 2.274-2.222 0-2.242-1.852-2.242-3.858M95.592.282V.84h-2.706v2.777h2.583v.555h-2.583v2.984h2.778v.556h-3.437V.282h3.365M100.138 3.698h1.224c.69 0 1.132-.329 1.132-1.491 0-1.265-.545-1.368-1.142-1.368h-1.214v2.86zM99.48.282h2.037c.617 0 1.635.084 1.635 1.801 0 1.492-.482 2.17-1.759 2.17h-1.255v3.458h-.658V.282zM105.29 3.554h1.07c.987 0 1.451-.257 1.451-1.501 0-1.019-.402-1.214-1.173-1.214h-1.348v2.715zm0 .557v3.6h-.658V.282h2.047c1.43 0 1.79.473 1.79 1.78 0 .927-.155 1.544-1.152 1.77v.02c1.04.217 1.101.34 1.101 2.995 0 .288.052.576.072.864h-.628c-.06-.216-.093-1.45-.102-1.852-.011-.318.205-1.748-1.225-1.748h-1.245zM113.607.282V.84H110.9v2.777h2.582v.555h-2.582v2.984h2.778v.556h-3.437V.282h3.365M118.359 2.166c-.022-.916-.247-1.471-1.256-1.471-.802 0-1.306.276-1.306 1.152 0 1.1.555 1.131 1.398 1.74.917.658 1.853.853 1.853 2.293 0 1.327-.679 1.975-1.975 1.975-1.451 0-2.1-.782-2.038-2.232h.68c0 .823.061 1.678 1.388 1.678.865 0 1.287-.464 1.287-1.318 0-1.008-.67-1.297-1.74-1.956-1.44-.884-1.501-1.326-1.512-2.067-.01-1.286.803-1.822 2.016-1.822 1.544 0 1.873.958 1.873 2.028h-.668M120.765 7.71h.659V.283h-.66zM123.99 7.155h.802c1.985 0 2.182-.534 2.182-3.569 0-2.13-.29-2.747-2.12-2.747h-.864v6.316zM123.33.282h1.965c2.079 0 2.336 1.215 2.336 3.745 0 2.47-.361 3.684-2.603 3.684h-1.698V.282zM132.76.282V.84h-2.706v2.777h2.583v.555h-2.583v2.984h2.778v.556h-3.437V.282h3.365M134.424 7.71V.283h1.008l3.015 6.524.022-.02V.281h.658v7.429h-.999l-3.025-6.594-.02.019v6.575h-.659M142.422.839h-1.812V.282h4.28V.84h-1.81V7.71h-.658V.839M148.53.282h3.139V.84h-2.48v2.777h2.305v.555h-2.304v3.54h-.66V.282M155.226 7.3c1.564 0 1.585-1.327 1.585-3.303 0-1.975-.021-3.302-1.585-3.302-1.563 0-1.585 1.327-1.585 3.302 0 1.976.022 3.304 1.585 3.304zm0-7.162c2.222 0 2.244 1.853 2.244 3.859 0 2.006-.022 3.858-2.244 3.858-2.223 0-2.243-1.852-2.243-3.858 0-2.006.02-3.859 2.243-3.859zM159.858 3.554h1.07c.987 0 1.451-.257 1.451-1.501 0-1.019-.402-1.214-1.173-1.214h-1.348v2.715zm0 .557v3.6h-.66V.282h2.049c1.43 0 1.79.473 1.79 1.78 0 .927-.155 1.544-1.152 1.77v.02c1.038.217 1.101.34 1.101 2.995 0 .288.052.576.071.864h-.626c-.063-.216-.094-1.45-.103-1.852-.011-.318.205-1.748-1.225-1.748h-1.245zM167.027 3.997c0-2.006.021-3.859 2.243-3.859 1.8 0 1.83 1.483 1.83 2.151h-.658c0-.823-.225-1.594-1.172-1.594-1.564 0-1.584 1.327-1.584 3.302 0 1.976.02 3.304 1.584 3.304.855 0 1.172-.763 1.184-1.72h.698c0 .536-.122 2.274-1.882 2.274-2.222 0-2.243-1.852-2.243-3.858M174.919 7.3c1.563 0 1.585-1.327 1.585-3.303 0-1.975-.022-3.302-1.585-3.302-1.564 0-1.584 1.327-1.584 3.302 0 1.976.02 3.304 1.584 3.304zm0-7.162c2.223 0 2.243 1.853 2.243 3.859 0 2.006-.02 3.858-2.243 3.858-2.222 0-2.244-1.852-2.244-3.858 0-2.006.022-3.859 2.244-3.859zM178.909 7.71V.283h1.122l2.19 6.709h.021l2.161-6.709h1.05v7.429h-.659V.92h-.021l-2.181 6.79h-.761L179.587.92h-.019v6.79h-.66M187.312 7.71V.283h1.121l2.191 6.709h.022l2.16-6.709h1.05v7.429h-.66V.92h-.019l-2.182 6.79h-.76L187.99.92h-.02v6.79h-.659M196.349 4.954c0 .967 0 2.347 1.512 2.347 1.513 0 1.513-1.38 1.513-2.347V.282h.658v5.156c0 1.913-1.008 2.417-2.171 2.417-1.163 0-2.17-.504-2.17-2.417V.282h.658v4.672M201.89 7.71V.283h1.007l3.014 6.524.022-.02V.281h.658v7.429h-.998l-3.025-6.594-.02.019v6.575h-.659M208.518 7.71h.658V.283h-.658zM210.946 3.997c0-2.006.02-3.859 2.244-3.859 1.8 0 1.83 1.483 1.83 2.151h-.658c0-.823-.226-1.594-1.172-1.594-1.565 0-1.585 1.327-1.585 3.302 0 1.976.02 3.304 1.585 3.304.853 0 1.172-.763 1.183-1.72h.699c0 .536-.122 2.274-1.882 2.274-2.223 0-2.244-1.852-2.244-3.858M220.135 5.201l-1.266-4.198h-.021l-1.256 4.198h2.543zM219.28.282l2.315 7.429h-.689l-.597-1.954h-2.912l-.586 1.954h-.659l2.346-7.429h.782zM223.683.839h-1.811V.282h4.28V.84h-1.81V7.71h-.659V.839M227.648 7.71h.658V.283h-.658zM232.336 7.3c1.565 0 1.584-1.327 1.584-3.303 0-1.975-.02-3.302-1.584-3.302-1.563 0-1.584 1.327-1.584 3.302 0 1.976.02 3.304 1.584 3.304zm0-7.162c2.223 0 2.242 1.853 2.242 3.859 0 2.006-.02 3.858-2.242 3.858s-2.242-1.852-2.242-3.858c0-2.006.02-3.859 2.242-3.859zM236.359 7.71V.283h1.008l3.015 6.524.02-.02V.281h.659v7.429h-.998l-3.025-6.594-.02.019v6.575h-.66M246.095 2.166c-.022-.916-.248-1.471-1.256-1.471-.802 0-1.308.276-1.308 1.152 0 1.1.557 1.131 1.4 1.74.916.658 1.852.853 1.852 2.293 0 1.327-.679 1.975-1.975 1.975-1.45 0-2.098-.782-2.038-2.232h.68c0 .823.062 1.678 1.389 1.678.864 0 1.286-.464 1.286-1.318 0-1.008-.669-1.297-1.74-1.956-1.439-.884-1.502-1.326-1.512-2.067-.01-1.286.802-1.822 2.017-1.822 1.543 0 1.873.958 1.873 2.028h-.668M78.285 28.282V11.776h2.491l4.87 14.906h.045l4.802-14.906h2.331v16.506h-1.463V13.194h-.046L86.47 28.282h-1.692l-4.984-15.088h-.046v15.088h-1.462M96.077 28.282h1.462V11.776h-1.462zM100.491 20.03c0-4.459.046-8.574 4.984-8.574 4.002 0 4.07 3.293 4.07 4.778h-1.464c0-1.828-.503-3.544-2.606-3.544-3.475 0-3.52 2.95-3.52 7.34 0 4.388.045 7.34 3.52 7.34 1.898 0 2.606-1.693 2.629-3.82h1.555c0 1.19-.274 5.053-4.184 5.053-4.938 0-4.984-4.115-4.984-8.573M112.263 28.282V11.776h1.463v7.407h6.492v-7.407h1.464v16.506h-1.464v-7.864h-6.492v7.864h-1.463M124.923 28.282h1.463V11.776h-1.463zM137.398 20.898h-3.337v-1.234h4.8v8.254a15.27 15.27 0 0 1-4.549.685c-5.373 0-4.984-5.373-4.984-8.573 0-3.201-.389-8.574 4.984-8.574 3.155 0 4.778 1.349 4.71 4.55h-1.463c0-2.172-.937-3.316-3.247-3.316-3.567 0-3.521 3.179-3.521 7.34 0 4.16-.046 7.34 3.521 7.34 1.258 0 2.31-.185 3.086-.48v-5.992M150.063 22.704l-2.813-9.328h-.045l-2.789 9.328h5.647zm-1.897-10.928l5.144 16.506h-1.533l-1.326-4.343h-6.47l-1.302 4.343h-1.463l5.213-16.506h1.737zM155.655 28.282V11.776h2.241l6.697 14.496.046-.046v-14.45h1.463v16.506h-2.217l-6.722-14.653-.045.045v14.608h-1.463M174.237 20.03c0-4.459.045-8.574 4.984-8.574 4 0 4.068 3.293 4.068 4.778h-1.463c0-1.828-.501-3.544-2.605-3.544-3.476 0-3.522 2.95-3.522 7.34 0 4.388.046 7.34 3.522 7.34 1.897 0 2.605-1.693 2.63-3.82h1.554c0 1.19-.275 5.053-4.184 5.053-4.939 0-4.984-4.115-4.984-8.573M187.426 19.047h2.377c2.195 0 3.223-.573 3.223-3.338 0-2.264-.891-2.698-2.605-2.698h-2.995v6.036zm0 1.234v8.001h-1.464V11.776h4.55c3.177 0 3.977 1.051 3.977 3.955 0 2.058-.343 3.429-2.56 3.933v.046c2.31.48 2.447.754 2.447 6.653 0 .64.113 1.28.159 1.92h-1.393c-.139-.48-.207-3.224-.23-4.115-.023-.709.457-3.887-2.72-3.887h-2.766zM204.931 11.776v1.235h-6.013v6.172h5.74v1.235h-5.74v6.63h6.173v1.234h-7.636V11.776h7.476M215.789 22.704l-2.813-9.328h-.046l-2.788 9.328h5.647zm-1.898-10.928l5.144 16.506h-1.532l-1.326-4.343h-6.47l-1.304 4.343h-1.462l5.212-16.506h1.738zM222.641 13.011h-4.023v-1.235h9.51v1.235h-4.024v15.271h-1.463v-15.27M230.497 28.282h1.463V11.776h-1.463zM243.827 11.776h1.418l-4.573 16.506h-1.827l-4.597-16.506h1.555l3.91 14.77h.046l4.068-14.77M254.999 11.776v1.235h-6.014v6.172h5.738v1.235h-5.738v6.63h6.173v1.234h-7.636V11.776H255M66.23 39.762h.852V.326h-.852zM116.102 37.479c.011 1.672.011 1.9.889 1.92v.404h-3.047V39.4c.783-.063.867-.188.877-.973.01-.3.01-.639.01-.937V34.85c0-.876-.01-1.186-.04-1.423-.054-.403-.25-.477-.847-.528v-.39l3.303.01c1.8 0 2.367.858 2.367 1.868 0 .704-.433 1.618-1.438 1.927l1.291 2.246c.468.86.715 1.057 1.304 1.14v.245c-.155.012-.313.02-.477.02-1.375 0-1.942-.472-2.52-1.703l-.404-.856c-.433-.92-.576-.863-1.268-.876v.949zm0-1.589c.194.04.473.073.68.073.83.004 1.457-.646 1.488-1.232.047-.843-.382-1.577-1.724-1.577-.187 0-.301.01-.444.04v2.696zm93.186.69v.395c-.662.038-.662.226-.681 1.61v.546c-.564.354-1.375.859-2.807.859-2.51 0-3.707-1.902-3.707-3.812 0-2.335 1.577-3.855 3.56-3.855 1.245 0 1.963.468 2.556.829l.382-.433.056 2.279-.297.055a3.69 3.69 0 0 0-.921-1.485c-.244-.235-.709-.542-1.445-.542-1.27 0-2.33 1.073-2.33 3.172 0 1.676.828 3.112 2.245 3.112.815 0 1.229-.568 1.269-.613.13-.195.161-.37.147-.69-.033-.93-.157-.951-.965-1.032v-.394h2.938zm-96.573 3.223c0-.529.09-1.394.152-1.891h-.35c-.25 1.303-.98 1.239-2.036 1.239-.97 0-1.164-.26-1.164-.734v-2.04h.785c.898 0 1.154.079 1.154.895h.35v-2.407h-.35c-.069.648-.203.863-1.145.863h-.794v-2.57h.894c1.243 0 1.686.092 1.853 1.082h.33l-.043-1.73h-5.193v.39c.524.053.752.084.825.427.052.226.06 1.027.06 1.318v2.564c0 .197-.008 1.073-.017 1.25-.02.795-.116.869-.868.94v.404h5.557zm28.323 0v-.395c.571-.06.787-.08.93-.226.168-.164.168-.349.175-1.145v-1.283l-1.936-3.004c-.528-.785-.537-.807-1.239-.847v-.404h3.795v.404c-.763.02-1.105.04-1.105.39 0 .198.134.425.321.734l1.115 1.826 1.03-1.815c.185-.364.29-.576.29-.744 0-.351-.3-.358-.807-.391v-.404h2.848v.404c-.735.02-.949.238-1.783 1.599l-1.135 1.9v1.521c0 1.322.007 1.426 1.092 1.485v.395h-3.591zm-34.57-7.293v.393c-.701.104-.798.298-1.397 1.746l-2.22 5.296h-.394l-1.992-5.38c-.496-1.384-.559-1.548-1.291-1.662v-.393h3.46v.393c-.588.02-.97.04-.97.465 0 .206.051.382.248.99l1.27 3.71 1.487-3.836c.092-.256.217-.587.217-.77 0-.526-.516-.552-.972-.56v-.392h2.553zm-25.852 0v.393c-.971.07-.971.104-.98 1.652v1.712c0 .892.018 1.656.486 2.34.373.54 1.007.611 1.326.611 1.042 0 1.618-.54 1.867-1.402.206-.68.214-1.96.214-2.808 0-.267 0-1.138-.008-1.37-.041-.664-.383-.685-1.035-.735v-.393h2.778v.393c-.681-.013-.826.142-.866.867-.012.173-.095 2.2-.104 2.51-.02.554-.053 1.105-.175 1.632-.495 1.962-2.406 2.067-2.912 2.067-.404 0-1.23-.064-1.913-.517-1.085-.735-1.096-1.829-1.096-3.006v-1.655c-.008-.784-.008-1.136-.029-1.321-.063-.456-.29-.544-.836-.577v-.393h3.283zm52.545 7.293v-.31c.671-.013.858-.259.858-.835v-5.375h-.908c-.824 0-1.372-.033-1.436 1.269h-.38l.06-2.042h6.624l.061 2.042h-.383c-.06-1.302-.607-1.269-1.432-1.269h-.908v5.375c0 .576.187.822.854.835v.31h-3.01zm-11.988-2.273l.373-.04c.4 1.188 1.072 1.825 2.167 1.825.773 0 1.457-.33 1.457-1.115 0-.829-.793-1.155-1.147-1.3-.292-.115-.597-.209-.888-.323-.598-.216-1.725-.679-1.725-2.096 0-1.36 1.073-2.128 2.321-2.128a3.04 3.04 0 0 1 1.677.498l.443-.318.238 2.165-.364.071c-.124-.475-.218-.695-.504-1.076-.351-.456-.844-.669-1.424-.669-.775 0-1.229.374-1.229.952 0 .866.858 1.158 1.672 1.423.414.137.754.251 1.05.424a2.127 2.127 0 0 1 1.055 1.86c0 1.262-1.034 2.306-2.569 2.306a3.273 3.273 0 0 1-1.89-.581l-.606-.44-.107-1.438zm-34.978 2.273v-.395c.6-.03.826-.041.909-.454.104-.487.134-4.813.143-5.565-.401-.372-.567-.446-1.052-.486v-.393h2.19c.61.867.742 1.064 1.817 2.395l2.035 2.52v-3.264c-.01-1.154-.042-1.218-1.2-1.258v-.393h2.872v.393c-.796.007-.864.176-.874 1.362l-.107 5.631h-.43l-.652-.816c-.333-.416-.66-.826-.993-1.23l-2.88-3.556v3.783c0 1.177.08 1.218 1.198 1.331v.395h-2.976zm41.005 0v-.395c.71-.093.857-.174.864-.94v-3.883c-.007-1.518-.007-1.561-.864-1.682v-.393h3.025v.393c-.86.084-.86.121-.86 1.682v2.945c0 .257.012 1.077.034 1.29.051.445.257.547.826.588v.395H127.2zm-32.127 0v-.395c.714-.093.858-.174.869-.94v-3.883c-.01-1.518-.01-1.561-.869-1.682v-.393h3.029v.393c-.856.084-.856.121-.856 1.682v2.945c0 .257.008 1.077.032 1.29.05.445.257.547.824.588v.395h-3.029zm62.684-.402v.402h3.018v-.402c-.753-.072-.847-.143-.87-.94l.006-2.082h.808c.815 0 1.248.08 1.3.894h.352v-2.407h-.353c-.04.787-.256.865-1.145.865h-.962v-2.526c.26-.034.404-.04.868-.04 1.429 0 1.887-.006 2.08 1.132h.36l-.117-1.784h-5.345v.391c.523.054.754.085.826.424.05.227.06 1.03.06 1.321v2.56c0 .198-.013 1.078-.022 1.253-.021.796-.11.867-.864.94zm-4.376-.083c.413-.012.994-.216 1.444-.9.513-.793.62-1.52.592-2.47-.032-.938-.292-1.746-.828-2.32-.235-.25-.694-.617-1.306-.598-.608 0-1.058.383-1.285.639-.518.587-.755 1.404-.755 2.344 0 .95.127 1.674.664 2.449.475.67 1.059.856 1.474.856zm3.643-3.17c0 2.522-1.719 3.844-3.65 3.844-2.124 0-3.779-1.53-3.779-3.855 0-1.992 1.335-3.79 3.678-3.78 2.208.01 3.751 1.578 3.751 3.79zm60.835 3.655v-.39c.6-.035.827-.043.91-.458.103-.483.135-4.81.143-5.565-.403-.372-.566-.446-1.053-.486v-.39h2.191c.61.868.742 1.06 1.817 2.392l2.037 2.521v-3.265c-.01-1.154-.041-1.218-1.199-1.258v-.39h2.873v.39c-.799.011-.867.176-.876 1.363l-.105 5.629h-.437l-.65-.814a91.25 91.25 0 0 0-.991-1.23l-2.881-3.555v3.78c0 1.181.079 1.222 1.197 1.336v.39h-2.976zm-45.061 0v-.39c.917-.063.917-.103.928-1.456v-3.668l-2.55 5.607h-.642l-2.34-5.682-.055 4.288c0 .714.083.848.858.91v.391h-2.53v-.39c.587-.035.818-.114.854-.608.023-.197.054-.81.063-1.213l.103-3.056c.011-.239.011-.589.011-.848 0-.72-.144-.773-.794-.784v-.39h2.293l2.273 5.535 2.498-5.536h2.22v.431c-.867.051-.876.147-.867 1.281v3.007c0 .498.01 1.115.04 1.488.042.538.25.639.828.693v.39h-3.191zm4.593 0v-.39c.714-.095.857-.178.867-.941v-3.886c-.01-1.514-.01-1.556-.867-1.682v-.39h3.027v.39c-.857.085-.857.126-.857 1.682v2.947c0 .258.013 1.075.033 1.289.05.444.257.548.824.59v.391h-3.027zm20.774 0v-.39c.714-.095.857-.178.867-.941v-3.886c-.01-1.514-.01-1.556-.867-1.682v-.39h3.032v.39c-.858.085-.858.126-.858 1.682v2.947c0 .258.01 1.075.03 1.289.05.444.257.548.828.59v.391h-3.032zm-9 0v-.39c.83-.074.837-.25.837-.951.012-.257.012-.518.012-.775v-3.058c0-.476 0-.951-.033-1.178-.04-.433-.248-.493-.815-.547v-.39h3.123v.39c-.61.064-.838.085-.91.486-.053.235-.06.772-.06 1.21v1.005a30.182 30.182 0 0 0 3.407 0V34.38c-.01-1.33-.02-1.386-1.012-1.477v-.39h3.161v.39c-.848.104-.848.114-.848 1.498v3.08c0 .285.01 1.207.044 1.423.05.382.267.454.804.508v.39h-3.16v-.39c.73-.084.927-.103.991-.608.02-.21.02-.486.02-1.014v-1.338c-.579-.021-1.059-.052-1.659-.052-.63 0-1.12.02-1.748.052v1.338c.007 1.519.03 1.519.97 1.622v.39h-3.123zm-1.228-1.619c-.322.525-1.097 1.816-3.11 1.816-2.196 0-3.619-1.62-3.619-3.749 0-1.973 1.206-3.914 3.669-3.914 1.296 0 1.982.545 2.408.878l.494-.454.04 2.21-.323.061c-.127-.424-.312-.765-.787-1.28-.224-.237-.762-.714-1.524-.714-1.32 0-2.358 1.074-2.358 2.967 0 1.6.855 3.107 2.54 3.107 1.274 0 1.756-.71 2.136-1.258l.434.33zm25.385-4.233l-1.072 3.024h2.097l-1.025-3.024zm.655 5.852v-.39c.497-.035.879-.074.879-.477 0-.144-.045-.3-.086-.434l-.216-.742h-2.569l-.226.627c-.05.158-.094.302-.094.455 0 .517.545.55.99.57v.391h-3.004v-.39c.766-.035 1.013-.187 1.293-.951l1.971-5.41-.113-.178c.844-.276 1.081-.404 1.445-.67.144.493.164.557.327 1.075l1.617 4.954c.287.879.424 1.096 1.193 1.18v.39h-3.407z"/>
        <path fill="#FFCB05" d="M27.573 32.882L16.28 17.445v11.228h4.491v11.09H0v-11.09h4.21v-17.26H0V.327h16.317L27.573 15.87 38.83.326h16.313v11.088h-4.211v17.26h4.211v11.088h-20.77V28.673h4.489V17.445l-11.29 15.437"/>
    </g>
</svg>
